Quantitative Methods and Statistics
…
df_from_csv <- read_csv("data/gapminder.csv")

Rows: 1704 Columns: 6
── Column specification ────────────────────────────────────────────────────────
Delimiter: ","
chr (2): country, continent
dbl (4): year, lifeExp, pop, gdpPercap

ℹ Use `spec()` to retrieve the full column specification for this data.
ℹ Specify the column types or set `show_col_types = FALSE` to quiet this message.

df_from_csv

# A tibble: 1,704 × 6
   country     continent  year lifeExp      pop gdpPercap
   <chr>       <chr>     <dbl>   <dbl>    <dbl>     <dbl>
 1 Afghanistan Asia       1952    28.8  8425333      779.
 2 Afghanistan Asia       1957    30.3  9240934      821.
 3 Afghanistan Asia       1962    32.0 10267083      853.
 4 Afghanistan Asia       1967    34.0 11537966      836.
 5 Afghanistan Asia       1972    36.1 13079460      740.
 6 Afghanistan Asia       1977    38.4 14880372      786.
 7 Afghanistan Asia       1982    39.9 12881816      978.
 8 Afghanistan Asia       1987    40.8 13867957      852.
 9 Afghanistan Asia       1992    41.7 16317921      649.
10 Afghanistan Asia       1997    41.8 22227415      635.
# ℹ 1,694 more rows

CSV is so common because it is a (deceivingly) simple plain-text format. However, its simplicity means it is somewhat underspecified which can lead to complications. Because of this, reading csv data properly can tricky and messy.

Excel files

Excel files require a separate package, and for pain-free reading the spreadsheet containing the data should follow a plain, single-header table format. If that is the case, the read command looks similarly simple to the csv case:

library(readxl)
df_from_excel <- read_excel("data/gapminder.xlsx")
df_from_excel

# A tibble: 1,704 × 6
   country     continent  year lifeExp      pop gdpPercap
   <chr>       <chr>     <dbl>   <dbl>    <dbl>     <dbl>
 1 Afghanistan Asia       1952    28.8  8425333      779.
 2 Afghanistan Asia       1957    30.3  9240934      821.
 3 Afghanistan Asia       1962    32.0 10267083      853.
 4 Afghanistan Asia       1967    34.0 11537966      836.
 5 Afghanistan Asia       1972    36.1 13079460      740.
 6 Afghanistan Asia       1977    38.4 14880372      786.
 7 Afghanistan Asia       1982    39.9 12881816      978.
 8 Afghanistan Asia       1987    40.8 13867957      852.
 9 Afghanistan Asia       1992    41.7 16317921      649.
10 Afghanistan Asia       1997    41.8 22227415      635.
# ℹ 1,694 more rows

The package also has options for reading data from different spreadsheets or from specified ranges of a spreadsheet.

Parquet files

Parquet is a more modern, efficient format that’s becoming increasingly popular:

library(arrow)
df_from_parquet <- read_parquet("data/gapminder.parquet")
df_from_parquet

# A tibble: 1,704 × 6
   country     continent  year lifeExp      pop gdpPercap
   <fct>       <fct>     <int>   <dbl>    <int>     <dbl>
 1 Afghanistan Asia       1952    28.8  8425333      779.
 2 Afghanistan Asia       1957    30.3  9240934      821.
 3 Afghanistan Asia       1962    32.0 10267083      853.
 4 Afghanistan Asia       1967    34.0 11537966      836.
 5 Afghanistan Asia       1972    36.1 13079460      740.
 6 Afghanistan Asia       1977    38.4 14880372      786.
 7 Afghanistan Asia       1982    39.9 12881816      978.
 8 Afghanistan Asia       1987    40.8 13867957      852.
 9 Afghanistan Asia       1992    41.7 16317921      649.
10 Afghanistan Asia       1997    41.8 22227415      635.
# ℹ 1,694 more rows
…
Basic data wrangling functions

The tidyverse way is to have simple functions that do one thing well and which can be combined to produce more complex analyses. The following is an overview of the most essential operations (there are many more).

Subsetting and sorting data frames

Selecting columns with select

Many real-world datasets come with a huge number of columns, of which you often only need a subset. You can use the select() function to return the input data frame with only the specified columns:

# first argument is data frame, rest are column names to keep
select(gapminder, country, year, lifeExp)

# A tibble: 1,704 × 3
   country      year lifeExp
   <chr>       <dbl>   <dbl>
 1 Afghanistan  1952    28.8
 2 Afghanistan  1957    30.3
 3 Afghanistan  1962    32.0
 4 Afghanistan  1967    34.0
 5 Afghanistan  1972    36.1
 6 Afghanistan  1977    38.4
 7 Afghanistan  1982    39.9
 8 Afghanistan  1987    40.8
 9 Afghanistan  1992    41.7
10 Afghanistan  1997    41.8
# ℹ 1,694 more rows
…
# Drop columns by putting a minus in front
select(gapminder, -continent, -pop)

# Select columns that start with a string
select(gapminder, starts_with("c"))

Renaming columns with rename

Column names aren’t always what you want. If you want to rename some functions and keep all the others as is, use rename() with the pattern new_name = old_name:

rename(gapminder, life_expectancy = lifeExp, gdp_per_capita = gdpPercap)

# A tibble: 1,704 × 6
   country     continent  year life_expectancy      pop gdp_per_capita
   <chr>       <chr>     <dbl>           <dbl>    <dbl>          <dbl>
 1 Afghanistan Asia       1952            28.8  8425333           779.
 2 Afghanistan Asia       1957            30.3  9240934           821.
 3 Afghanistan Asia       1962            32.0 10267083           853.
 4 Afghanistan Asia       1967            34.0 11537966           836.
 5 Afghanistan Asia       1972            36.1 13079460           740.
 6 Afghanistan Asia       1977            38.4 14880372           786.
 7 Afghanistan Asia       1982            39.9 12881816           978.
 8 Afghanistan Asia       1987            40.8 13867957           852.
 9 Afghanistan Asia       1992            41.7 16317921           649.
10 Afghanistan Asia       1997            41.8 22227415           635.
# ℹ 1,694 more rows

If you instead want to only keep the columns that you want to rename, you can use select with the same renaming pattern:

select(gapminder, life_expectancy = lifeExp, gdp_per_capita = gdpPercap)

# A tibble: 1,704 × 2
   life_expectancy gdp_per_capita
             <dbl>          <dbl>
 1            28.8           779.
 2            30.3           821.
 3            32.0           853.
 4            34.0           836.
 5            36.1           740.
 6            38.4           786.
 7            39.9           978.
 8            40.8           852.
 9            41.7           649.
10            41.8           635.
# ℹ 1,694 more rows

The difference is that rename will keep all the other columns while select will only keep the specified ones.

Filtering rows with filter

While select is used to pick out certain columns, filter() keeps rows based on certain specified conditions:

filter(gapminder, year == 2007)

# A tibble: 142 × 6
   country     continent  year lifeExp       pop gdpPercap
   <chr>       <chr>     <dbl>   <dbl>     <dbl>     <dbl>
 1 Afghanistan Asia       2007    43.8  31889923      975.
 2 Albania     Europe     2007    76.4   3600523     5937.
 3 Algeria     Africa     2007    72.3  33333216     6223.
 4 Angola      Africa     2007    42.7  12420476     4797.
 5 Argentina   Americas   2007    75.3  40301927    12779.
 6 Australia   Oceania    2007    81.2  20434176    34435.
 7 Austria     Europe     2007    79.8   8199783    36126.
 8 Bahrain     Asia       2007    75.6    708573    29796.
 9 Bangladesh  Asia       2007    64.1 150448339     1391.
10 Belgium     Europe     2007    79.4  10392226    33693.
# ℹ 132 more rows
…
This is equivalent to specifying a chain of OR statements (via |), but shorter and more convenient because we can use a pre-specified vector of allowed values.

Dropping missing values with drop_na

The gapminder dataset is clean, but real data often has missing values. While missing data requires care and additional assumptions to deal with potentially biased results, a first exploratory step is often to just drop rows with missing data, which we can achieve with drop_na():

# Create some missing data for demonstration
gapminder_with_na <- gapminder
gapminder_with_na$lifeExp[1:5] <- NA

# Drop rows with any missing values
drop_na(gapminder_with_na)

# A tibble: 1,699 × 6
   country     continent  year lifeExp      pop gdpPercap
   <chr>       <chr>     <dbl>   <dbl>    <dbl>     <dbl>
 1 Afghanistan Asia       1977    38.4 14880372      786.
 2 Afghanistan Asia       1982    39.9 12881816      978.
 3 Afghanistan Asia       1987    40.8 13867957      852.
 4 Afghanistan Asia       1992    41.7 16317921      649.
 5 Afghanistan Asia       1997    41.8 22227415      635.
 6 Afghanistan Asia       2002    42.1 25268405      727.
 7 Afghanistan Asia       2007    43.8 31889923      975.
 8 Albania     Europe     1952    55.2  1282697     1601.
 9 Albania     Europe     1957    59.3  1476505     1942.
10 Albania     Europe     1962    64.8  1728137     2313.
# ℹ 1,689 more rows

We can also specify to only drop rows with missing values in certain columns:

drop_na(gapminder_with_na, lifeExp)

You should however keep in mind that simply dropping rows with missing values can be dangerous because it might bias the results (why are these values missing? For which observations are they missing?). Accordingly, you should always make sure that you at least understand the extent and the pattern of missing values in your dataset before dropping incomplete rows.

Removing duplicate rows with distinct

distinct() removes duplicate rows with respect to the specified columns. E.g., if we only wanted a list of continents and countries, we could do the following:

# Get unique combinations of continent and year
distinct(gapminder, continent, country)

# A tibble: 142 × 2
   continent country    
   <chr>     <chr>      
 1 Asia      Afghanistan
 2 Europe    Albania    
 3 Africa    Algeria    
 4 Africa    Angola     
 5 Americas  Argentina  
 6 Oceania   Australia  
 7 Europe    Austria    
 8 Asia      Bahrain    
 9 Asia      Bangladesh 
10 Europe    Belgium    
# ℹ 132 more rows

Note that this drops all the other columns. If you want to keep the first value for the other columns, specify .keep_all = TRUE (note the dot in the argument name):

distinct(gapminder, country, .keep_all = TRUE)

Sorting rows with arrange

arrange() sorts rows by one or more columns:

# Sort by life expectancy
arrange(gapminder, lifeExp)

# A tibble: 1,704 × 6
   country      continent  year lifeExp     pop gdpPercap
   <chr>        <chr>     <dbl>   <dbl>   <dbl>     <dbl>
 1 Rwanda       Africa     1992    23.6 7290203      737.
 2 Afghanistan  Asia       1952    28.8 8425333      779.
 3 Gambia       Africa     1952    30    284320      485.
 4 Angola       Africa     1952    30.0 4232095     3521.
 5 Sierra Leone Africa     1952    30.3 2143249      880.
 6 Afghanistan  Asia       1957    30.3 9240934      821.
 7 Cambodia     Asia       1977    31.2 6978607      525.
 8 Mozambique   Africa     1952    31.3 6446316      469.
 9 Sierra Leone Africa     1957    31.6 2295678     1004.
10 Burkina Faso Africa     1952    32.0 4469979      543.
# ℹ 1,694 more rows
…
Select only the country, year, and population columns.

Filter for data from Asian or American countries in the year 2007.

Which are the top 5 most populous countries in 2002?

Grouping, mutating and summarizing data frames

Making new columns with mutate

mutate() creates new columns or modifies existing ones. E.g., to create a column with the total GDP (instead of per-capita GDP), we can create a new column containing the product of gdpPercap and pop:

mutate(gapminder, total_gdp = gdpPercap * pop)

# A tibble: 1,704 × 7
   country     continent  year lifeExp      pop gdpPercap    total_gdp
   <chr>       <chr>     <dbl>   <dbl>    <dbl>     <dbl>        <dbl>
 1 Afghanistan Asia       1952    28.8  8425333      779.  6567086330.
 2 Afghanistan Asia       1957    30.3  9240934      821.  7585448670.
 3 Afghanistan Asia       1962    32.0 10267083      853.  8758855797.
 4 Afghanistan Asia       1967    34.0 11537966      836.  9648014150.
 5 Afghanistan Asia       1972    36.1 13079460      740.  9678553274.
 6 Afghanistan Asia       1977    38.4 14880372      786. 11697659231.
 7 Afghanistan Asia       1982    39.9 12881816      978. 12598563401.
 8 Afghanistan Asia       1987    40.8 13867957      852. 11820990309.
 9 Afghanistan Asia       1992    41.7 16317921      649. 10595901589.
10 Afghanistan Asia       1997    41.8 22227415      635. 14121995875.
# ℹ 1,694 more rows

You can create multiple columns at once and in the process reference newly created columns:

mutate(gapminder,
       total_gdp = gdpPercap * pop,
       gdp_billions = total_gdp / 1e9,
       gdp_trillions = gdp_billions / 1000)

# A tibble: 1,704 × 9
   country     continent  year lifeExp      pop gdpPercap total_gdp gdp_billions
   <chr>       <chr>     <dbl>   <dbl>    <dbl>     <dbl>     <dbl>        <dbl>
 1 Afghanistan Asia       1952    28.8  8425333      779.   6.57e 9         6.57
 2 Afghanistan Asia       1957    30.3  9240934      821.   7.59e 9         7.59
 3 Afghanistan Asia       1962    32.0 10267083      853.   8.76e 9         8.76
 4 Afghanistan Asia       1967    34.0 11537966      836.   9.65e 9         9.65
 5 Afghanistan Asia       1972    36.1 13079460      740.   9.68e 9         9.68
 6 Afghanistan Asia       1977    38.4 14880372      786.   1.17e10        11.7 
 7 Afghanistan Asia       1982    39.9 12881816      978.   1.26e10        12.6 
 8 Afghanistan Asia       1987    40.8 13867957      852.   1.18e10        11.8 
 9 Afghanistan Asia       1992    41.7 16317921      649.   1.06e10        10.6 
10 Afghanistan Asia       1997    41.8 22227415      635.   1.41e10        14.1 
# ℹ 1,694 more rows
# ℹ 1 more variable: gdp_trillions <dbl>

A particularly useful helper function for creating new columns is case_when(), which let’s you specify conditional logic by specifying condition ~ value pairs. For example, we could assign continents to different groups:

mutate(gapminder,
   continent_group = case_when(
     continent == "Europe" | continent == "America" ~ "West",
     continent == "Asia" ~ "East",
     continent == "Africa" ~ "South",
     TRUE ~ "Other"
   )
)

# A tibble: 1,704 × 7
   country     continent  year lifeExp      pop gdpPercap continent_group
   <chr>       <chr>     <dbl>   <dbl>    <dbl>     <dbl> <chr>          
 1 Afghanistan Asia       1952    28.8  8425333      779. East           
 2 Afghanistan Asia       1957    30.3  9240934      821. East           
 3 Afghanistan Asia       1962    32.0 10267083      853. East           
 4 Afghanistan Asia       1967    34.0 11537966      836. East           
 5 Afghanistan Asia       1972    36.1 13079460      740. East           
 6 Afghanistan Asia       1977    38.4 14880372      786. East           
 7 Afghanistan Asia       1982    39.9 12881816      978. East           
 8 Afghanistan Asia       1987    40.8 13867957      852. East           
 9 Afghanistan Asia       1992    41.7 16317921      649. East           
10 Afghanistan Asia       1997    41.8 22227415      635. East           
# ℹ 1,694 more rows

Grouped summaries with group_by and summarize

One of the most powerful patterns is grouping data and calculating summaries for each group. The first step is grouping a data frame:

# Average life expectancy by continent
gapminder_grouped <- group_by(gapminder, continent)
gapminder_grouped

# A tibble: 1,704 × 6
# Groups:   continent [5]
   country     continent  year lifeExp      pop gdpPercap
   <chr>       <chr>     <dbl>   <dbl>    <dbl>     <dbl>
 1 Afghanistan Asia       1952    28.8  8425333      779.
 2 Afghanistan Asia       1957    30.3  9240934      821.
 3 Afghanistan Asia       1962    32.0 10267083      853.
 4 Afghanistan Asia       1967    34.0 11537966      836.
 5 Afghanistan Asia       1972    36.1 13079460      740.
 6 Afghanistan Asia       1977    38.4 14880372      786.
 7 Afghanistan Asia       1982    39.9 12881816      978.
 8 Afghanistan Asia       1987    40.8 13867957      852.
 9 Afghanistan Asia       1992    41.7 16317921      649.
10 Afghanistan Asia       1997    41.8 22227415      635.
# ℹ 1,694 more rows
…
Long vs. wide format data (source: graph gallery)

Here is how we can switch between the two representations using the pivot_wider() function:

gapminder_wide <- pivot_wider(gapminder,
                              id_cols = country,
                              names_from = year, 
                              values_from = lifeExp)

gapminder_wide

# A tibble: 142 × 13
   country `1952` `1957` `1962` `1967` `1972` `1977` `1982` `1987` `1992` `1997`
   <chr>    <dbl>  <dbl>  <dbl>  <dbl>  <dbl>  <dbl>  <dbl>  <dbl>  <dbl>  <dbl>
 1 Afghan…   28.8   30.3   32.0   34.0   36.1   38.4   39.9   40.8   41.7   41.8
 2 Albania   55.2   59.3   64.8   66.2   67.7   68.9   70.4   72     71.6   73.0
 3 Algeria   43.1   45.7   48.3   51.4   54.5   58.0   61.4   65.8   67.7   69.2
 4 Angola    30.0   32.0   34     36.0   37.9   39.5   39.9   39.9   40.6   41.0
 5 Argent…   62.5   64.4   65.1   65.6   67.1   68.5   69.9   70.8   71.9   73.3
 6 Austra…   69.1   70.3   70.9   71.1   71.9   73.5   74.7   76.3   77.6   78.8
 7 Austria   66.8   67.5   69.5   70.1   70.6   72.2   73.2   74.9   76.0   77.5
 8 Bahrain   50.9   53.8   56.9   59.9   63.3   65.6   69.1   70.8   72.6   73.9
 9 Bangla…   37.5   39.3   41.2   43.5   45.3   46.9   50.0   52.8   56.0   59.4
10 Belgium   68     69.2   70.2   70.9   71.4   72.8   73.9   75.4   76.5   77.5
# ℹ 132 more rows
# ℹ 2 more variables: `2002` <dbl>, `2007` <dbl>

Here, id_cols refers to the column(s) that identify the new rows, names_from specifies from which column the new column names in the wide table should be taken, and values_from specifies from which column the values to populate the new columns should be taken.

To convert back to long format, we can use the pivot_longer() function:

pivot_longer(gapminder_wide, -country)

# A tibble: 1,704 × 3
   country     name  value
   <chr>       <chr> <dbl>
 1 Afghanistan 1952   28.8
 2 Afghanistan 1957   30.3
 3 Afghanistan 1962   32.0
 4 Afghanistan 1967   34.0
 5 Afghanistan 1972   36.1
 6 Afghanistan 1977   38.4
 7 Afghanistan 1982   39.9
 8 Afghanistan 1987   40.8
 9 Afghanistan 1992   41.7
10 Afghanistan 1997   41.8
# ℹ 1,694 more rows
…
