Quantitative Methods and Statistics – QMSS
…
Finally, these two datasets look like they could be combined into a single data frame with a country per row and columns for population and emissions. We achieve this with a join:

df <- left_join(emissions, population) # joins on all common name columns

Joining with `by = join_by(entity, code, year)`

df <- filter(df, year == 2020)
df

# A tibble: 215 × 5
   entity              code   year emissions population
   <chr>               <chr> <dbl>     <dbl>      <dbl>
 1 Afghanistan         AFG    2020     0.297   39068977
 2 Albania             ALB    2020     1.64     2871950
 3 Algeria             DZA    2020     3.82    44042094
 4 Andorra             AND    2020     4.92       77397
 5 Angola              AGO    2020     0.494   33451139
 6 Anguilla            AIA    2020     9.61       14864
 7 Antigua and Barbuda ATG    2020     6.74       91864
 8 Argentina           ARG    2020     3.65    45191960
 9 Armenia             ARM    2020     2.35     2890893
10 Aruba               ABW    2020     7.64      107411
# ℹ 205 more rows
…
